# vtk DataFile Version 3.0
vtk output
ASCII
DATASET POLYDATA 
POINTS 32 float
-0.0000000000 -0.4000000000 0.0000000000
-0.0000000000 -0.3000000000 0.0000000000
-0.0000000000 -0.2000000000 0.0000000000
-0.0000000000 -0.1000000000 0.0000000000
-0.0000000000 -0.0000000000 0.0000000000
0.0000000000 0.1000000000 0.0000000000
0.0000000000 0.2000000000 0.0000000000
0.0000000000 0.3000000000 0.0000000000
0.0000000000 0.4000000000 0.0000000000
0.0000000000 0.5000000000 0.0000000000
1.0000000000 0.5000000000 0.0000000000
2.0000000000 0.5000000000 0.0000000000
3.0000000000 0.5000000000 0.0000000000
4.0000000000 0.5000000000 0.0000000000
5.0000000000 0.5000000000 0.0000000000
6.0000000000 0.5000000000 0.0000000000
7.0000000000 0.5000000000 0.0000000000
8.0000000000 0.5000000000 0.0000000000
9.0000000000 0.5000000000 0.0000000000
10.0000000000 0.5000000000 0.0000000000
10.0000000000 0.0000000000 0.0000000000
10.0000000000 -0.5000000000 0.0000000000
9.0000000000 -0.5000000000 0.0000000000
8.0000000000 -0.5000000000 0.0000000000
7.0000000000 -0.5000000000 0.0000000000
6.0000000000 -0.5000000000 0.0000000000
5.0000000000 -0.5000000000 0.0000000000
4.0000000000 -0.5000000000 0.0000000000
3.0000000000 -0.5000000000 0.0000000000
2.0000000000 -0.5000000000 0.0000000000
1.0000000000 -0.5000000000 0.0000000000
0.0000000000 -0.5000000000 0.0000000000
LINES 32 96
2 0 1
2 1 2
2 2 3
2 3 4
2 4 5
2 5 6
2 6 7
2 7 8
2 8 9
2 9 10
2 10 11
2 11 12
2 12 13
2 13 14
2 14 15
2 15 16
2 16 17
2 17 18
2 18 19
2 19 20
2 20 21
2 21 22
2 22 23
2 23 24
2 24 25
2 25 26
2 26 27
2 27 28
2 28 29
2 29 30
2 30 31
2 31 0
CELL_DATA 32
SCALARS Components int
LOOKUP_TABLE default
1
1
1
1
1
1
1
1
1
2
2
2
2
2
2
2
2
2
2
3
3
4
4
4
4
4
4
4
4
4
4
1
